<?xml version='1.0' encoding='utf-8'?>
<gexf version="1.2" xmlns="http://www.gexf.net/1.2draft" xmlns:xsi="http://www.w3.org/2001/XMLSchema-instance" xsi:schemaLocation="http://www.w3.org/2001/XMLSchema-instance">
  <graph defaultedgetype="directed" mode="static" name="">
    <attributes class="edge" mode="static">
      <attribute id="0" title="I" type="double" />
      <attribute id="1" title="R" type="double" />
    </attributes>
    <meta>
      <creator>NetworkX 2.0</creator>
      <lastmodified>05/11/2017</lastmodified>
    </meta>
    <nodes>
      <node id="0" label="0" />
      <node id="1" label="1" />
      <node id="2" label="2" />
      <node id="3" label="3" />
      <node id="4" label="4" />
      <node id="5" label="5" />
      <node id="6" label="6" />
      <node id="7" label="7" />
      <node id="8" label="8" />
      <node id="9" label="9" />
      <node id="10" label="10" />
      <node id="11" label="11" />
      <node id="12" label="12" />
      <node id="13" label="13" />
      <node id="14" label="14" />
    </nodes>
    <edges>
      <edge id="0" source="0" target="1">
        <attvalues>
          <attvalue for="0" value="1.9629715327862145" />
          <attvalue for="1" value="5.0" />
        </attvalues>
      </edge>
      <edge id="1" source="0" target="10">
        <attvalues>
          <attvalue for="0" value="0.5742712315014844" />
          <attvalue for="1" value="14.0" />
        </attvalues>
      </edge>
      <edge id="2" source="0" target="4">
        <attvalues>
          <attvalue for="0" value="0.51046429379788" />
          <attvalue for="1" value="17.0" />
        </attvalues>
      </edge>
      <edge id="3" source="0" target="5">
        <attvalues>
          <attvalue for="0" value="4.285714285714311" />
          <attvalue for="1" value="7.0" />
        </attvalues>
      </edge>
      <edge id="4" source="1" target="8">
        <attvalues>
          <attvalue for="0" value="0.055161475050733676" />
          <attvalue for="1" value="12.0" />
        </attvalues>
      </edge>
      <edge id="5" source="1" target="11">
        <attvalues>
          <attvalue for="0" value="0.14214214758400606" />
          <attvalue for="1" value="5.0" />
        </attvalues>
      </edge>
      <edge id="6" source="1" target="3">
        <attvalues>
          <attvalue for="0" value="0.6172206902928278" />
          <attvalue for="1" value="4.0" />
        </attvalues>
      </edge>
      <edge id="7" source="1" target="5">
        <attvalues>
          <attvalue for="0" value="1.3456761557379304" />
          <attvalue for="1" value="15.0" />
        </attvalues>
      </edge>
      <edge id="8" source="2" target="14">
        <attvalues>
          <attvalue for="0" value="0.05782727884257768" />
          <attvalue for="1" value="7.0" />
        </attvalues>
      </edge>
      <edge id="9" source="2" target="3">
        <attvalues>
          <attvalue for="0" value="0.09142969270308547" />
          <attvalue for="1" value="19.0" />
        </attvalues>
      </edge>
      <edge id="10" source="2" target="13">
        <attvalues>
          <attvalue for="0" value="0.19738114671325663" />
          <attvalue for="1" value="13.0" />
        </attvalues>
      </edge>
      <edge id="11" source="2" target="6">
        <attvalues>
          <attvalue for="0" value="0.1197642055021563" />
          <attvalue for="1" value="6.0" />
        </attvalues>
      </edge>
      <edge id="12" source="3" target="12">
        <attvalues>
          <attvalue for="0" value="0.7086503829959067" />
          <attvalue for="1" value="17.0" />
        </attvalues>
      </edge>
      <edge id="13" source="4" target="2">
        <attvalues>
          <attvalue for="0" value="0.2335854086475012" />
          <attvalue for="1" value="8.0" />
        </attvalues>
      </edge>
      <edge id="14" source="4" target="13">
        <attvalues>
          <attvalue for="0" value="0.31675986974659365" />
          <attvalue for="1" value="14.0" />
        </attvalues>
      </edge>
      <edge id="15" source="6" target="13">
        <attvalues>
          <attvalue for="0" value="0.26390995346562657" />
          <attvalue for="1" value="7.0" />
        </attvalues>
      </edge>
      <edge id="16" source="7" target="2">
        <attvalues>
          <attvalue for="0" value="0.00536776147722039" />
          <attvalue for="1" value="7.0" />
        </attvalues>
      </edge>
      <edge id="17" source="8" target="2">
        <attvalues>
          <attvalue for="0" value="0.0174452248009673" />
          <attvalue for="1" value="4.0" />
        </attvalues>
      </edge>
      <edge id="18" source="8" target="14">
        <attvalues>
          <attvalue for="0" value="0.09491437022037766" />
          <attvalue for="1" value="5.0" />
        </attvalues>
      </edge>
      <edge id="19" source="8" target="6">
        <attvalues>
          <attvalue for="0" value="0.06569717768473553" />
          <attvalue for="1" value="12.0" />
        </attvalues>
      </edge>
      <edge id="20" source="8" target="7">
        <attvalues>
          <attvalue for="0" value="0.005367761477221151" />
          <attvalue for="1" value="6.0" />
        </attvalues>
      </edge>
      <edge id="21" source="9" target="13">
        <attvalues>
          <attvalue for="0" value="0.10727135165775953" />
          <attvalue for="1" value="18.0" />
        </attvalues>
      </edge>
      <edge id="22" source="10" target="8">
        <attvalues>
          <attvalue for="0" value="0.12826305913258262" />
          <attvalue for="1" value="19.0" />
        </attvalues>
      </edge>
      <edge id="23" source="10" target="1">
        <attvalues>
          <attvalue for="0" value="0.19722893587891702" />
          <attvalue for="1" value="9.0" />
        </attvalues>
      </edge>
      <edge id="24" source="10" target="2">
        <attvalues>
          <attvalue for="0" value="0.20889825189357805" />
          <attvalue for="1" value="12.0" />
        </attvalues>
      </edge>
      <edge id="25" source="10" target="4">
        <attvalues>
          <attvalue for="0" value="0.03988098459643448" />
          <attvalue for="1" value="16.0" />
        </attvalues>
      </edge>
      <edge id="26" source="11" target="9">
        <attvalues>
          <attvalue for="0" value="0.09372549133218894" />
          <attvalue for="1" value="7.0" />
        </attvalues>
      </edge>
      <edge id="27" source="11" target="2">
        <attvalues>
          <attvalue for="0" value="0.0011056769417197882" />
          <attvalue for="1" value="19.0" />
        </attvalues>
      </edge>
      <edge id="28" source="11" target="14">
        <attvalues>
          <attvalue for="0" value="0.04731097931007551" />
          <attvalue for="1" value="9.0" />
        </attvalues>
      </edge>
      <edge id="29" source="12" target="5">
        <attvalues>
          <attvalue for="0" value="0.7086503829959034" />
          <attvalue for="1" value="8.0" />
        </attvalues>
      </edge>
      <edge id="30" source="13" target="5">
        <attvalues>
          <attvalue for="0" value="0.9933805193519962" />
          <attvalue for="1" value="17.0" />
        </attvalues>
      </edge>
      <edge id="31" source="14" target="9">
        <attvalues>
          <attvalue for="0" value="0.01354586032556768" />
          <attvalue for="1" value="17.0" />
        </attvalues>
      </edge>
      <edge id="32" source="14" target="13">
        <attvalues>
          <attvalue for="0" value="0.10805819776871606" />
          <attvalue for="1" value="20.0" />
        </attvalues>
      </edge>
      <edge id="33" source="14" target="6">
        <attvalues>
          <attvalue for="0" value="0.07844857027873862" />
          <attvalue for="1" value="4.0" />
        </attvalues>
      </edge>
    </edges>
  </graph>
</gexf>
